G05-Simulation-1/lRot_8bit/simulation/qsim/lRot_8bit.msim.vcd
$comment
	File created using the following command:
		vcd file lRot_8bit.msim.vcd -direction
$end
$date
	Tue Oct 22 17:14:25 2019
$end
$version
	ModelSim Version 10.5b
$end
$timescale
	1ps
$end

$scope module lrot_8bit_vhd_vec_tst $end
$var wire 1 ! dIn [7] $end
$var wire 1 " dIn [6] $end
$var wire 1 # dIn [5] $end
$var wire 1 $ dIn [4] $end
$var wire 1 % dIn [3] $end
$var wire 1 & dIn [2] $end
$var wire 1 ' dIn [1] $end
$var wire 1 ( dIn [0] $end
$var wire 1 ) dOut [7] $end
$var wire 1 * dOut [6] $end
$var wire 1 + dOut [5] $end
$var wire 1 , dOut [4] $end
$var wire 1 - dOut [3] $end
$var wire 1 . dOut [2] $end
$var wire 1 / dOut [1] $end
$var wire 1 0 dOut [0] $end
$var wire 1 1 sel [2] $end
$var wire 1 2 sel [1] $end
$var wire 1 3 sel [0] $end

$scope module i1 $end
$var wire 1 4 gnd $end
$var wire 1 5 vcc $end
$var wire 1 6 unknown $end
$var wire 1 7 devoe $end
$var wire 1 8 devclrn $end
$var wire 1 9 devpor $end
$var wire 1 : ww_devoe $end
$var wire 1 ; ww_devclrn $end
$var wire 1 < ww_devpor $end
$var wire 1 = ww_dIn [7] $end
$var wire 1 > ww_dIn [6] $end
$var wire 1 ? ww_dIn [5] $end
$var wire 1 @ ww_dIn [4] $end
$var wire 1 A ww_dIn [3] $end
$var wire 1 B ww_dIn [2] $end
$var wire 1 C ww_dIn [1] $end
$var wire 1 D ww_dIn [0] $end
$var wire 1 E ww_sel [2] $end
$var wire 1 F ww_sel [1] $end
$var wire 1 G ww_sel [0] $end
$var wire 1 H ww_dOut [7] $end
$var wire 1 I ww_dOut [6] $end
$var wire 1 J ww_dOut [5] $end
$var wire 1 K ww_dOut [4] $end
$var wire 1 L ww_dOut [3] $end
$var wire 1 M ww_dOut [2] $end
$var wire 1 N ww_dOut [1] $end
$var wire 1 O ww_dOut [0] $end
$var wire 1 P \dOut[0]~output_o\ $end
$var wire 1 Q \dOut[1]~output_o\ $end
$var wire 1 R \dOut[2]~output_o\ $end
$var wire 1 S \dOut[3]~output_o\ $end
$var wire 1 T \dOut[4]~output_o\ $end
$var wire 1 U \dOut[5]~output_o\ $end
$var wire 1 V \dOut[6]~output_o\ $end
$var wire 1 W \dOut[7]~output_o\ $end
$var wire 1 X \dIn[4]~input_o\ $end
$var wire 1 Y \dIn[2]~input_o\ $end
$var wire 1 Z \sel[1]~input_o\ $end
$var wire 1 [ \blk1|mult4|y~1_combout\ $end
$var wire 1 \ \dIn[3]~input_o\ $end
$var wire 1 ] \dIn[1]~input_o\ $end
$var wire 1 ^ \blk1|mult4|y~0_combout\ $end
$var wire 1 _ \sel[0]~input_o\ $end
$var wire 1 ` \blk1|mult4|y~2_combout\ $end
$var wire 1 a \dIn[6]~input_o\ $end
$var wire 1 b \dIn[0]~input_o\ $end
$var wire 1 c \blk1|mult0|y~0_combout\ $end
$var wire 1 d \dIn[7]~input_o\ $end
$var wire 1 e \dIn[5]~input_o\ $end
$var wire 1 f \blk1|mult7|y~0_combout\ $end
$var wire 1 g \blk1|mult0|y~1_combout\ $end
$var wire 1 h \sel[2]~input_o\ $end
$var wire 1 i \blk2|mult0|y~0_combout\ $end
$var wire 1 j \blk1|mult2|y~0_combout\ $end
$var wire 1 k \blk1|mult1|y~0_combout\ $end
$var wire 1 l \blk1|mult5|y~0_combout\ $end
$var wire 1 m \blk1|mult5|y~1_combout\ $end
$var wire 1 n \blk2|mult1|y~0_combout\ $end
$var wire 1 o \blk1|mult2|y~1_combout\ $end
$var wire 1 p \blk1|mult2|y~2_combout\ $end
$var wire 1 q \blk1|mult6|y~0_combout\ $end
$var wire 1 r \blk1|mult6|y~1_combout\ $end
$var wire 1 s \blk2|mult2|y~0_combout\ $end
$var wire 1 t \blk1|mult7|y~1_combout\ $end
$var wire 1 u \blk1|mult3|y~0_combout\ $end
$var wire 1 v \blk2|mult3|y~0_combout\ $end
$var wire 1 w \blk2|mult4|y~0_combout\ $end
$var wire 1 x \blk2|mult5|y~0_combout\ $end
$var wire 1 y \blk2|mult6|y~0_combout\ $end
$var wire 1 z \blk2|mult7|y~0_combout\ $end
$upscope $end
$upscope $end
$enddefinitions $end
#0
$dumpvars
04
15
x6
17
18
19
1:
1;
1<
1P
0Q
0R
0S
0T
0U
0V
0W
0X
0Y
0Z
0[
0\
0]
0^
0_
0`
0a
1b
1c
0d
0e
0f
1g
0h
1i
0j
0k
0l
0m
0n
0o
0p
0q
0r
0s
0t
0u
0v
0w
0x
0y
0z
0!
0"
0#
0$
0%
0&
0'
1(
01
02
03
0=
0>
0?
0@
0A
0B
0C
1D
0E
0F
0G
0H
0I
0J
0K
0L
0M
0N
1O
0)
0*
0+
0,
0-
0.
0/
10
$end
#90000
13
1G
1_
0g
1k
1n
0i
0P
1Q
0O
1N
00
1/
#160000
03
12
0G
1F
1Z
0_
1g
0k
0c
1o
1p
0g
0n
1i
0i
1s
1P
0Q
1O
0N
1R
0P
10
0/
1M
0O
00
1.
#220000
13
1G
1_
0p
1u
1v
0s
0R
1S
0M
1L
0.
1-
#300000
03
02
11
0G
0F
1E
1h
0Z
0_
1p
0u
1c
0o
0v
1z
0p
1g
0z
1y
1w
0y
1W
0S
1H
0L
1V
0W
0-
1)
1I
0H
0V
1T
1*
0)
0I
1K
1,
0*
#370000
13
1G
1_
0g
1k
1x
0w
0T
1U
0K
1J
0,
1+
#440000
03
12
0G
1F
1Z
0_
1g
0k
0c
1o
1p
0g
0x
1w
0w
1y
1T
0U
1K
0J
1V
0T
1,
0+
1I
0K
0,
1*
#520000
13
1G
1_
0p
1u
1z
0y
0V
1W
0I
1H
0*
1)
#580000
03
02
01
0(
0G
0F
0E
0D
0b
0h
0Z
0_
1p
0u
1v
0z
0o
0p
0v
1s
0s
0W
1S
0H
1L
1R
0S
1-
0)
1M
0L
0R
1.
0-
0M
0.
